{
    "prepare_queue": {
        "installed": [],
        "uninstalled": []
    },
    "config_munge": {
        "files": {
            "config.xml": {
                "parents": {
                    "/*": [
                        {
                            "xml": "<feature name=\"Device\"><param name=\"ios-package\" value=\"CDVDevice\" /></feature>",
                            "count": 1
                        },
                        {
                            "xml": "<feature name=\"NativeStorage\"><param name=\"ios-package\" value=\"NativeStorage\" /></feature>",
                            "count": 1
                        },
                        {
                            "xml": "<feature name=\"Notification\"><param name=\"ios-package\" value=\"CDVNotification\" /></feature>",
                            "count": 1
                        },
                        {
                            "xml": "<feature name=\"BarcodeScanner\"><param name=\"ios-package\" value=\"CDVBarcodeScanner\" /></feature>",
                            "count": 1
                        }
                    ]
                }
            },
            "*-Info.plist": {
                "parents": {
                    "NSCameraUsageDescription": [
                        {
                            "xml": "<string> </string>",
                            "count": 1
                        }
                    ]
                }
            }
        }
    },
    "installed_plugins": {
        "cordova-plugin-compat": {
            "PACKAGE_NAME": "com.Hotpotatoart.Orchestra"
        },
        "cordova-plugin-device": {
            "PACKAGE_NAME": "com.Hotpotatoart.Orchestra"
        },
        "cordova-plugin-nativestorage": {
            "PACKAGE_NAME": "com.Hotpotatoart.Orchestra"
        },
        "cordova-plugin-whitelist": {
            "PACKAGE_NAME": "com.Hotpotatoart.Orchestra"
        },
        "cordova-plugin-dialogs": {
            "PACKAGE_NAME": "com.Hotpotatoart.Orchestra"
        },
        "phonegap-plugin-barcodescanner": {
            "CAMERA_USAGE_DESCRIPTION": " ",
            "PACKAGE_NAME": "com.Hotpotatoart.Orchestra"
        }
    },
    "dependent_plugins": {},
    "modules": [
        {
            "id": "cordova-plugin-device.device",
            "file": "plugins/cordova-plugin-device/www/device.js",
            "pluginId": "cordova-plugin-device",
            "clobbers": [
                "device"
            ]
        },
        {
            "id": "cordova-plugin-nativestorage.mainHandle",
            "file": "plugins/cordova-plugin-nativestorage/www/mainHandle.js",
            "pluginId": "cordova-plugin-nativestorage",
            "clobbers": [
                "NativeStorage"
            ]
        },
        {
            "id": "cordova-plugin-nativestorage.LocalStorageHandle",
            "file": "plugins/cordova-plugin-nativestorage/www/LocalStorageHandle.js",
            "pluginId": "cordova-plugin-nativestorage"
        },
        {
            "id": "cordova-plugin-nativestorage.NativeStorageError",
            "file": "plugins/cordova-plugin-nativestorage/www/NativeStorageError.js",
            "pluginId": "cordova-plugin-nativestorage"
        },
        {
            "id": "cordova-plugin-dialogs.notification",
            "file": "plugins/cordova-plugin-dialogs/www/notification.js",
            "pluginId": "cordova-plugin-dialogs",
            "merges": [
                "navigator.notification"
            ]
        },
        {
            "id": "phonegap-plugin-barcodescanner.BarcodeScanner",
            "file": "plugins/phonegap-plugin-barcodescanner/www/barcodescanner.js",
            "pluginId": "phonegap-plugin-barcodescanner",
            "clobbers": [
                "cordova.plugins.barcodeScanner"
            ]
        }
    ],
    "plugin_metadata": {
        "cordova-plugin-compat": "1.0.0",
        "cordova-plugin-device": "1.1.6",
        "cordova-plugin-nativestorage": "2.2.2",
        "cordova-plugin-whitelist": "1.3.2",
        "cordova-plugin-dialogs": "1.3.3",
        "phonegap-plugin-barcodescanner": "7.0.0"
    }
}